
{ "app": "",
"path": ".",
"tests": "tests",
  "options" : { 
      "all" : {"help": "all view tests", 
                  "opt":"./tests/test_views.py"
                    }
                
            }
}