[
    {
        "_id": {
            "$oid": "5703832ffead630724982872"
        },
        "field": [
            "testSetField"
        ],
        "nested":[
            {
                "name":"nested",
                "subfield":[
                    "one",
                    "two",
                    "three"
                ]
            }
        ]
    }
]